C101

VEHICLE
NUMBER     CAPACITY
  25         200

CUSTOMER
CUST NO.  XCOORD.   YCOORD.    DEMAND   READY TIME  DUE DATE   SERVICE   TIME

    0      40         50          0          0       1236          0
    1      45         68         10        912        967         90
    2      45         70         30        825        870         90
    3      42         66         10         65        146         90
    4      42         68         10        727        782         90
    5      42         65         10         15         67         90